SYS_brk(0)  = 0x872000                                                                               
SYS_access("/etc/ld.so.nohwcap",00)= -2                                                                                     
SYS_mmap(0, 8192, 3,34) = 0x7f3efe456000                                                                         
SYS_access("/etc/ld.so.preload", 04) = -2                                                                                     
SYS_open("/etc/ld.so.cache", 524288, 01) = 3                                                                                      
SYS_fstat(3, 0x7ffd0b631940)  = 0                                                                                      
SYS_mmap(0, 0x18538, 1, 2) = 0x7f3efe43d000                                                                         
SYS_close(3) = 0                                                                                      
SYS_access("/etc/ld.so.nohwcap", 00) = -2                                                                                     
SYS_open("/lib/x86_64-linux-gnu/libc.so.6", 524288, 037621320550) = 3                                                                                      
SYS_read(3, "\177ELF\002\001\001\003", 832) = 832                                                                                    
SYS_fstat(3, 0x7ffd0b631990)                                                                                                                    = 0                                                                                      
SYS_mmap(0, 0x3c89a0, 5, 2050) = 0x7f3efde6a000                                                                         
SYS_mprotect(0x7f3efe029000, 2097152, 0) = 0                                                                                      
SYS_mmap(0x7f3efe229000, 0x6000, 3, 2066) = 0x7f3efe229000                                                                         
SYS_mmap(0x7f3efe22f000, 0x39a0, 3, 50) = 0x7f3efe22f000
SYS_close(3) = 0
SYS_mmap(0, 4096, 3, 34) = 0x7f3efe43c000
SYS_mmap(0, 4096, 3, 34) = 0x7f3efe43b000
SYS_mmap(0, 4096, 3, 34) = 0x7f3efe43a000
SYS_arch_prctl(4098, 0x7f3efe43b700, 3, 34)  = 0
SYS_mprotect(0x7f3efe229000, 16384, 1) = 0
SYS_mprotect(0x600000, 4096, 1) = 0
SYS_mprotect(0x7f3efe458000, 4096, 1) = 0
SYS_munmap(0x7f3efe43d000, 99640) = 0
__libc_start_main(0x400526, 1, 0x7ffd0b632328, 0x400540 <unfinished ...>
printf("Hello World" <unfinished ...>
SYS_fstat(1, 0x7ffd0b631ab0)  = 0
SYS_brk(0)  = 0x872000
SYS_brk(0x894000) = 0x894000
<... printf resumed> ) = 11
SYS_write(1, "Hello World", 11) = 11
SYS_exit_group(0 <no return ...>  = 11

